Genre and Character in The Taming of the Shrew: 0 - A Look at the Toolbox
…
# A tibble: 1 x 2
  gutenberg_id title                  
         <int> <chr>                  
1         1508 The Taming of the Shrew

Let’s download the play and store it in an R object. I will call it plays (plural in case we add more texts or something.)

plays <- gutenberg_download(IDs, meta_fields = "title")

plays %>% as_tibble()

# A tibble: 4,829 x 3
   gutenberg_id text                       title                  
          <int> <chr>                      <chr>                  
 1         1508 "THE TAMING OF THE SHREW"  The Taming of the Shrew
 2         1508 ""                         The Taming of the Shrew
 3         1508 "by William Shakespeare"   The Taming of the Shrew
 4         1508 ""                         The Taming of the Shrew
 5         1508 ""                         The Taming of the Shrew
 6         1508 ""                         The Taming of the Shrew
 7         1508 ""                         The Taming of the Shrew
 8         1508 "Dramatis Personae"        The Taming of the Shrew
 9         1508 ""                         The Taming of the Shrew
10         1508 "Persons in the Induction" The Taming of the Shrew
# … with 4,819 more rows
…
